
PID:6616 ************************* Logging started at 10/07/2019 12:55:34 *************************
6616 - 2019-10-07 12:55:35.081 Checking application instance certificate.
6616 - 2019-10-07 12:55:35.089 Checking application instance certificate. CN=UA OPC Server, DC=BLRKEC344132D
6616 - 2019-10-07 12:55:35.264 Checking domains in certificate. CN=UA OPC Server, DC=BLRKEC344132D
6616 - 2019-10-07 12:55:35.299 Adding certificate to discovery server trust list.
6616 - 2019-10-07 12:55:37.815 The server is starting.
6616 - 2019-10-07 12:55:42.916 TCPCLIENTCHANNEL SOCKET CLOSED: 0000077C, ChannelId=0
6616 - 2019-10-07 12:55:42.919 RegisterServer failed for: opc.tcp://localhost:4840/. Exception=Error establishing a connection.
6616 - 2019-10-07 12:55:42.926 Register server failed. Trying again in 2000 ms
6616 - 2019-10-07 12:55:46.124 TCPCLIENTCHANNEL SOCKET CLOSED: 000007F8, ChannelId=0
6616 - 2019-10-07 12:55:46.125 RegisterServer failed for: opc.tcp://localhost:4840/. Exception=Error establishing a connection.
6616 - 2019-10-07 12:55:46.132 Register server failed. Trying again in 4000 ms
6616 - 2019-10-07 12:55:51.346 TCPCLIENTCHANNEL SOCKET CLOSED: 00000818, ChannelId=0
6616 - 2019-10-07 12:55:51.349 RegisterServer failed for: opc.tcp://localhost:4840/. Exception=Error establishing a connection.
6616 - 2019-10-07 12:55:51.356 Register server failed. Trying again in 8000 ms
6616 - 2019-10-07 12:56:00.591 TCPCLIENTCHANNEL SOCKET CLOSED: 0000082C, ChannelId=0
6616 - 2019-10-07 12:56:00.594 RegisterServer failed for: opc.tcp://localhost:4840/. Exception=Error establishing a connection.
6616 - 2019-10-07 12:56:00.601 Register server failed. Trying again in 16000 ms
6616 - 2019-10-07 12:56:08.038 TCPSERVERCHANNEL SOCKET ATTACHED: 00000824, ChannelId=1
6616 - 2019-10-07 12:56:08.109 Token #0 created. CreatedAt = 07:26:08.109 . Lifetime = 3600000
6616 - 2019-10-07 12:56:08.118 SECURE CHANNEL CREATED [TcpServerChannel UA-TCP 1.03.342.0] [ID=1] Connected To: opc.tcp://blrkec344132d:49320/UA/OPCServer [None/None/Binary]
6616 - 2019-10-07 12:56:08.125 Token #1 activated. CreatedAt = 07:26:08.109 . Lifetime = 3600000
6616 - 2019-10-07 12:56:08.230 Thread created: 11. Current thread count: 1. Active thread count1
6616 - 2019-10-07 12:56:08.300 TCPSERVERCHANNEL ProcessCloseSecureChannelRequest Socket=00000824, ChannelId=1, TokenId=1
6616 - 2019-10-07 12:56:08.303 Channel 1 closed
6616 - 2019-10-07 12:56:08.366 TCPSERVERCHANNEL SOCKET ATTACHED: 0000085C, ChannelId=2
6616 - 2019-10-07 12:56:08.415 Token #0 created. CreatedAt = 07:26:08.415 . Lifetime = 3600000
6616 - 2019-10-07 12:56:08.420 SECURE CHANNEL CREATED [TcpServerChannel UA-TCP 1.03.342.0] [ID=2] Connected To: opc.tcp://blrkec344132d:49320/UA/OPCServer [None/None/Binary]
6616 - 2019-10-07 12:56:08.422 Token #1 activated. CreatedAt = 07:26:08.415 . Lifetime = 3600000
6616 - 2019-10-07 12:56:08.524 Session CREATED, Id=ns=4;i=234328774, Name=PTC_ThingWorx Industrial Connectivity_UA_Client_Driver:SEF-MTP-RTN69119, ChannelId=503d0b3e-4117-45a3-bd70-728bfcd93496-2, User=Anonymous
6616 - 2019-10-07 12:56:08.529 Server - SESSION CREATED. SessionId=ns=4;i=234328774
6616 - 2019-10-07 12:56:08.576 Session VALIDATED, Id=ns=4;i=234328774, Name=PTC_ThingWorx Industrial Connectivity_UA_Client_Driver:SEF-MTP-RTN69119, ChannelId=503d0b3e-4117-45a3-bd70-728bfcd93496-2, User=Anonymous
6616 - 2019-10-07 12:56:08.612 Session FIRST ACTIVATION, Id=ns=4;i=234328774, Name=PTC_ThingWorx Industrial Connectivity_UA_Client_Driver:SEF-MTP-RTN69119, ChannelId=503d0b3e-4117-45a3-bd70-728bfcd93496-2, User=Anonymous
6616 - 2019-10-07 12:56:08.625 Server - SESSION ACTIVATED.
6616 - 2019-10-07 12:56:17.173 Session CLOSED, Id=ns=4;i=234328774, Name=PTC_ThingWorx Industrial Connectivity_UA_Client_Driver:SEF-MTP-RTN69119, ChannelId=503d0b3e-4117-45a3-bd70-728bfcd93496-2, User=Anonymous
6616 - 2019-10-07 12:56:17.200 TCPSERVERCHANNEL ProcessCloseSecureChannelRequest Socket=0000085C, ChannelId=2, TokenId=1
6616 - 2019-10-07 12:56:17.205 Channel 2 closed
6616 - 2019-10-07 12:56:17.802 TCPCLIENTCHANNEL SOCKET CLOSED: 000008D4, ChannelId=0
6616 - 2019-10-07 12:56:17.804 RegisterServer failed for: opc.tcp://localhost:4840/. Exception=Error establishing a connection.
6616 - 2019-10-07 12:56:17.807 Register server failed. Trying again in 30000 ms
